{
  "requestContext": {
    "elb": {
      "targetGroupArn": "arn:aws:elasticloadbalancing:us-east-1:541855766228:targetgroup/webhook-listener/bafc87b3b37fcf38"
    }
  },
  "httpMethod": "POST",
  "path": "/webhook",
  "queryStringParameters": {},
  "headers": {
    "accept-encoding": "gzip",
    "cloudfront-forwarded-proto": "https",
    "cloudfront-is-desktop-viewer": "true",
    "cloudfront-is-mobile-viewer": "false",
    "cloudfront-is-smarttv-viewer": "false",
    "cloudfront-is-tablet-viewer": "false",
    "cloudfront-viewer-country": "US",
    "connection": "Keep-Alive",
    "content-length": "3741",
    "content-type": "application/json",
    "host": "www.ixc-dev.com",
    "user-agent": "SendGrid Event API",
    "via": "2.0 29708ecf347192c02a40779f838f2ddb.cloudfront.net (CloudFront)",
    "x-amz-cf-id": "FAKnF-kkLvE1t5kiBj709OakJwVj5qLGx5rV8wAUp-L5z4HYK4SYEg==",
    "x-amzn-trace-id": "Root=1-60ee4882-2bc89b341e0d74f9203fc8d2",
    "x-forwarded-for": "52.71.125.39, 130.176.133.94",
    "x-forwarded-port": "443",
    "x-forwarded-proto": "https",
    "x-twilio-email-event-webhook-signature": "MEUCIBZqEwV80yGjEFEeM+yt5RQDhXxlOwk7gIZmctQ7b+E/AiEA9JhnVGatZf9JWvS8omK6E0kJlUIEar3580vU9sBM+Gs=",
    "x-twilio-email-event-webhook-timestamp": "1626228866"
  },
  "body": "[{\"email\":\"example@test.com\",\"timestamp\":1626228866,\"smtp-id\":\"\\u003c14c5d75ce93.dfd.64b469@ismtpd-555\\u003e\",\"event\":\"processed\",\"category\":[\"cat facts\"],\"sg_event_id\":\"6nKbqeLmEc-7tqYSy0Jvug==\",\"sg_message_id\":\"14c5d75ce93.dfd.64b469.filter0001.16648.5515E0B88.0\"},\r\n{\"email\":\"example@test.com\",\"timestamp\":1626228866,\"smtp-id\":\"\\u003c14c5d75ce93.dfd.64b469@ismtpd-555\\u003e\",\"event\":\"deferred\",\"category\":[\"cat facts\"],\"sg_event_id\":\"qBcM2BXEPjk518sFfEHHOA==\",\"sg_message_id\":\"14c5d75ce93.dfd.64b469.filter0001.16648.5515E0B88.0\",\"response\":\"400 try again later\",\"attempt\":\"5\"},\r\n{\"email\":\"example@test.com\",\"timestamp\":1626228866,\"smtp-id\":\"\\u003c14c5d75ce93.dfd.64b469@ismtpd-555\\u003e\",\"event\":\"delivered\",\"category\":[\"cat facts\"],\"sg_event_id\":\"esxql9eX3Fo4Pv7mFVxZ8g==\",\"sg_message_id\":\"14c5d75ce93.dfd.64b469.filter0001.16648.5515E0B88.0\",\"response\":\"250 OK\"},\r\n{\"email\":\"example@test.com\",\"timestamp\":1626228866,\"smtp-id\":\"\\u003c14c5d75ce93.dfd.64b469@ismtpd-555\\u003e\",\"event\":\"open\",\"category\":[\"cat facts\"],\"sg_event_id\":\"Sm1HwxKwsdez66vYWoraZA==\",\"sg_message_id\":\"14c5d75ce93.dfd.64b469.filter0001.16648.5515E0B88.0\",\"useragent\":\"Mozilla/4.0 (compatible; MSIE 6.1; Windows XP; .NET CLR 1.1.4322; .NET CLR 2.0.50727)\",\"ip\":\"255.255.255.255\"},\r\n{\"email\":\"example@test.com\",\"timestamp\":1626228866,\"smtp-id\":\"\\u003c14c5d75ce93.dfd.64b469@ismtpd-555\\u003e\",\"event\":\"click\",\"category\":[\"cat facts\"],\"sg_event_id\":\"KBDBCUZMhcDAs_qOOW7X7g==\",\"sg_message_id\":\"14c5d75ce93.dfd.64b469.filter0001.16648.5515E0B88.0\",\"useragent\":\"Mozilla/4.0 (compatible; MSIE 6.1; Windows XP; .NET CLR 1.1.4322; .NET CLR 2.0.50727)\",\"ip\":\"255.255.255.255\",\"url\":\"http://www.sendgrid.com/\"},\r\n{\"email\":\"example@test.com\",\"timestamp\":1626228866,\"smtp-id\":\"\\u003c14c5d75ce93.dfd.64b469@ismtpd-555\\u003e\",\"event\":\"bounce\",\"category\":[\"cat facts\"],\"sg_event_id\":\"t5HRSua2Jt0DYdmgqTUynA==\",\"sg_message_id\":\"14c5d75ce93.dfd.64b469.filter0001.16648.5515E0B88.0\",\"reason\":\"500 unknown recipient\",\"status\":\"5.0.0\"},\r\n{\"email\":\"example@test.com\",\"timestamp\":1626228866,\"smtp-id\":\"\\u003c14c5d75ce93.dfd.64b469@ismtpd-555\\u003e\",\"event\":\"dropped\",\"category\":[\"cat facts\"],\"sg_event_id\":\"o-1PmVoM2_2NUofxxKGzwg==\",\"sg_message_id\":\"14c5d75ce93.dfd.64b469.filter0001.16648.5515E0B88.0\",\"reason\":\"Bounced Address\",\"status\":\"5.0.0\"},\r\n{\"email\":\"example@test.com\",\"timestamp\":1626228866,\"smtp-id\":\"\\u003c14c5d75ce93.dfd.64b469@ismtpd-555\\u003e\",\"event\":\"spamreport\",\"category\":[\"cat facts\"],\"sg_event_id\":\"RHlp070KAVDKymFqbq-Y9g==\",\"sg_message_id\":\"14c5d75ce93.dfd.64b469.filter0001.16648.5515E0B88.0\"},\r\n{\"email\":\"example@test.com\",\"timestamp\":1626228866,\"smtp-id\":\"\\u003c14c5d75ce93.dfd.64b469@ismtpd-555\\u003e\",\"event\":\"unsubscribe\",\"category\":[\"cat facts\"],\"sg_event_id\":\"DOj1Ol3IRYVax_ciRpvONg==\",\"sg_message_id\":\"14c5d75ce93.dfd.64b469.filter0001.16648.5515E0B88.0\"},\r\n{\"email\":\"example@test.com\",\"timestamp\":1626228866,\"smtp-id\":\"\\u003c14c5d75ce93.dfd.64b469@ismtpd-555\\u003e\",\"event\":\"group_unsubscribe\",\"category\":[\"cat facts\"],\"sg_event_id\":\"8lLwD5fOnD-gUcAqyz_Itw==\",\"sg_message_id\":\"14c5d75ce93.dfd.64b469.filter0001.16648.5515E0B88.0\",\"useragent\":\"Mozilla/4.0 (compatible; MSIE 6.1; Windows XP; .NET CLR 1.1.4322; .NET CLR 2.0.50727)\",\"ip\":\"255.255.255.255\",\"url\":\"http://www.sendgrid.com/\",\"asm_group_id\":10},\r\n{\"email\":\"example@test.com\",\"timestamp\":1626228866,\"smtp-id\":\"\\u003c14c5d75ce93.dfd.64b469@ismtpd-555\\u003e\",\"event\":\"group_resubscribe\",\"category\":[\"cat facts\"],\"sg_event_id\":\"bdMnmk4klVjMeM3oA0bGKA==\",\"sg_message_id\":\"14c5d75ce93.dfd.64b469.filter0001.16648.5515E0B88.0\",\"useragent\":\"Mozilla/4.0 (compatible; MSIE 6.1; Windows XP; .NET CLR 1.1.4322; .NET CLR 2.0.50727)\",\"ip\":\"255.255.255.255\",\"url\":\"http://www.sendgrid.com/\",\"asm_group_id\":10}]\r\n",
  "isBase64Encoded": false,
  "level": "debug",
  "message": "validateSendGridWebhookRequest",
  "label": "makeFunction",
  "timestamp": "2021-07-14T02:14:27.417Z"
}
