[
  {
    "email": "example@test.com",
    "timestamp": 1625934585,
    "smtp-id": "\u003c14c5d75ce93.dfd.64b469@ismtpd-555\u003e",
    "event": "processed",
    "category": ["cat facts"],
    "sg_event_id": "WyZdJnLRkuOOHGvgwrqYZg==",
    "sg_message_id": "14c5d75ce93.dfd.64b469.filter0001.16648.5515E0B88.0"
  },
  { "email": "example@test.com", "timestamp": 1625934585, "smtp-id": "\u003c14c5d75ce93.dfd.64b469@ismtpd-555\u003e", "event": "deferred", "category": ["cat facts"], "sg_event_id": "jD7eKs38vBvNAlT8azfGKg==", "sg_message_id": "14c5d75ce93.dfd.64b469.filter0001.16648.5515E0B88.0", "response": "400 try again later", "attempt": "5" },
  { "email": "example@test.com", "timestamp": 1625934585, "smtp-id": "\u003c14c5d75ce93.dfd.64b469@ismtpd-555\u003e", "event": "delivered", "category": ["cat facts"], "sg_event_id": "Fm7y9_Ks7gYTAt6Wq5Pqiw==", "sg_message_id": "14c5d75ce93.dfd.64b469.filter0001.16648.5515E0B88.0", "response": "250 OK" },
  { "email": "example@test.com", "timestamp": 1625934585, "smtp-id": "\u003c14c5d75ce93.dfd.64b469@ismtpd-555\u003e", "event": "open", "category": ["cat facts"], "sg_event_id": "Y87GIeZjq2iUGZPIxrdvMg==", "sg_message_id": "14c5d75ce93.dfd.64b469.filter0001.16648.5515E0B88.0", "useragent": "Mozilla/4.0 (compatible; MSIE 6.1; Windows XP; .NET CLR 1.1.4322; .NET CLR 2.0.50727)", "ip": "255.255.255.255" },
  { "email": "example@test.com", "timestamp": 1625934585, "smtp-id": "\u003c14c5d75ce93.dfd.64b469@ismtpd-555\u003e", "event": "click", "category": ["cat facts"], "sg_event_id": "ZVs83w92HIU2AjGWmOf9qw==", "sg_message_id": "14c5d75ce93.dfd.64b469.filter0001.16648.5515E0B88.0", "useragent": "Mozilla/4.0 (compatible; MSIE 6.1; Windows XP; .NET CLR 1.1.4322; .NET CLR 2.0.50727)", "ip": "255.255.255.255", "url": "http://www.sendgrid.com/" },
  { "email": "example@test.com", "timestamp": 1625934585, "smtp-id": "\u003c14c5d75ce93.dfd.64b469@ismtpd-555\u003e", "event": "bounce", "category": ["cat facts"], "sg_event_id": "CfMBOHHFLgSlugPowzRf2g==", "sg_message_id": "14c5d75ce93.dfd.64b469.filter0001.16648.5515E0B88.0", "reason": "500 unknown recipient", "status": "5.0.0" },
  { "email": "example@test.com", "timestamp": 1625934585, "smtp-id": "\u003c14c5d75ce93.dfd.64b469@ismtpd-555\u003e", "event": "dropped", "category": ["cat facts"], "sg_event_id": "u3LgCQh9Wht2Hdu_1DTehw==", "sg_message_id": "14c5d75ce93.dfd.64b469.filter0001.16648.5515E0B88.0", "reason": "Bounced Address", "status": "5.0.0" },
  { "email": "example@test.com", "timestamp": 1625934585, "smtp-id": "\u003c14c5d75ce93.dfd.64b469@ismtpd-555\u003e", "event": "spamreport", "category": ["cat facts"], "sg_event_id": "N27piq-gcMC29zsnuQOaRA==", "sg_message_id": "14c5d75ce93.dfd.64b469.filter0001.16648.5515E0B88.0" },
  { "email": "example@test.com", "timestamp": 1625934585, "smtp-id": "\u003c14c5d75ce93.dfd.64b469@ismtpd-555\u003e", "event": "unsubscribe", "category": ["cat facts"], "sg_event_id": "PdmMNl6WfItDHX6ZsT-cqw==", "sg_message_id": "14c5d75ce93.dfd.64b469.filter0001.16648.5515E0B88.0" },
  { "email": "example@test.com", "timestamp": 1625934585, "smtp-id": "\u003c14c5d75ce93.dfd.64b469@ismtpd-555\u003e", "event": "group_unsubscribe", "category": ["cat facts"], "sg_event_id": "Lm6ZTj_zCtCYwS1eKwJTgg==", "sg_message_id": "14c5d75ce93.dfd.64b469.filter0001.16648.5515E0B88.0", "useragent": "Mozilla/4.0 (compatible; MSIE 6.1; Windows XP; .NET CLR 1.1.4322; .NET CLR 2.0.50727)", "ip": "255.255.255.255", "url": "http://www.sendgrid.com/", "asm_group_id": 10 },
  { "email": "example@test.com", "timestamp": 1625934585, "smtp-id": "\u003c14c5d75ce93.dfd.64b469@ismtpd-555\u003e", "event": "group_resubscribe", "category": ["cat facts"], "sg_event_id": "sl1FJH-kPzaOIEvX4OvnBQ==", "sg_message_id": "14c5d75ce93.dfd.64b469.filter0001.16648.5515E0B88.0", "useragent": "Mozilla/4.0 (compatible; MSIE 6.1; Windows XP; .NET CLR 1.1.4322; .NET CLR 2.0.50727)", "ip": "255.255.255.255", "url": "http://www.sendgrid.com/", "asm_group_id": 10 }
]
